…
You can do this in dplyr, of course. This code doesn’t plot, but it shows the aggregation of points to hexes that you’d need for plotting

library(dplyr, quietly=TRUE)
tibble(x,y) %>% 
   mutate(x1=round(x),y1=round(y/sqrt(3))*sqrt(3), 
   x2=round(x+1/2)-1/2, y2=(round(y/sqrt(3)+1/2)-1/2)*sqrt(3)) %>%
   mutate(d1=(x-x1)^2+3*(y-y1)^2, d2=(x-x2)^2+3*(y-y2)^2) %>%
   mutate(hx=if_else(d1<d2,x1,x2), hy=if_else(d1<d2,y1,y2)) %>%
   group_by(hx,hy) %>% summarise(count=n())

## # A tibble: 67 x 3
## # Groups:   hx [?]
##       hx     hy count
##    <dbl>  <dbl> <int>
##  1  -3.5  0.866     1
##  2  -3.5  2.60      1
##  3  -3    0         2
##  4  -2.5 -0.866     5
##  5  -2.5  0.866     6
##  6  -2   -5.20      1
##  7  -2   -3.46      3
##  8  -2   -1.73      2
##  9  -2    0        12
## 10  -2    1.73      3
## # ... with 57 more rows
…
